Chapter 2 Sample Metadata | Getting Started with Microbiome Data Analysis in R
…
2.5.5 Which samples have the smallest number of reads?

We want to use samples with smaller number of reads for computation reasons.

Read depth is proportional to the number of bases (renamed to milionbases)

Let’s explore read depth across isolates and ecosystem.

We will sort the bases in ascending order.

metadata %>% 
  select(isolate, ecosystem, milionbases) %>% 
  arrange(milionbases)

# A tibble: 133 × 3
   isolate    ecosystem milionbases
   <chr>      <chr>           <dbl>
 1 Zebra      Serengeti           4
 2 Warthog    Serengeti           8
 3 Buffalo    Serengeti           9
 4 Buffalo    Serengeti          11
 5 Wildebeest Serengeti          11
 6 Wildebeest Serengeti          13
 7 Wildebeest Serengeti          16
 8 Wildebeest Serengeti          16
 9 Buffalo    Serengeti          19
10 Buffalo    Serengeti          19
# … with 123 more rows
…
